Example 1
…
Word Frequency

# top 10 most common words in each book
top10 <- series %>%
                anti_join(stop_words) %>%
                group_by(book) %>%
                count(word, sort = TRUE) %>%
                top_n(10) %>%
                ungroup()

top10

## # A tibble: 70 x 3
##    book                 word         n
##    <fct>                <chr>    <int>
##  1 Order of the Phoenix harry     3730
##  2 Goblet of Fire       harry     2936
##  3 Deathly Hallows      harry     2770
##  4 Half-Blood Prince    harry     2581
##  5 Prisoner of Azkaban  harry     1824
##  6 Chamber of Secrets   harry     1503
##  7 Order of the Phoenix hermione  1220
##  8 Philosopher's Stone  harry     1213
##  9 Order of the Phoenix ron       1189
## 10 Deathly Hallows      hermione  1077
## # ... with 60 more rows
…
